^C:\Users\s132080\Desktop\Prototype_2\Prottype\WindowsStore\Prottype\Prottype.vcxproj
C:\Users\s132080\Desktop\Prototype_2\Prottype\WindowsStore\Prottype\Debug\priconfig.xml
C:\Users\s132080\Desktop\Prototype_2\Prottype\WindowsStore\Prottype\Debug\layout.resfiles
C:\Users\s132080\Desktop\Prototype_2\Prottype\WindowsStore\Prottype\Debug\resources.resfiles
C:\Users\s132080\Desktop\Prototype_2\Prottype\WindowsStore\Prottype\Debug\pri.resfiles
C:\Users\s132080\Desktop\Prototype_2\Prottype\WindowsStore\Prottype\Package.appxmanifest
C:\Users\s132080\Desktop\Prototype_2\Prottype\WindowsStore\Prottype\Package.appxmanifest
C:\Program Files (x86)\Windows Kits\8.1\Include\WinRT\AppxManifestSchema2010_v2.xsd
C:\Program Files (x86)\Windows Kits\8.1\Include\WinRT\AppxManifestSchema2013.xsd
C:\Users\s132080\Desktop\Prototype_2\Prottype\WindowsStore\Prottype\MetroTestCertificate.pfx
C:\Users\s132080\Desktop\Prototype_2\Prottype\WindowsStore\Players\Windows81\x86\Debug\BridgeInterface.winmd
C:\Users\s132080\Desktop\Prototype_2\Prottype\WindowsStore\Players\Windows81\x86\Debug\UnityEngineDelegates.winmd
C:\Users\s132080\Desktop\Prototype_2\Prottype\WindowsStore\Players\Windows81\x86\Debug\UnityPlayer.winmd
C:\Users\s132080\Desktop\Prototype_2\Prottype\WindowsStore\Players\Windows81\x86\Debug\WinRTBridge.winmd
C:\Users\s132080\Desktop\Prototype_2\Prottype\WindowsStore\Prottype\Debug\qualifiers.txt
C:\Users\s132080\Desktop\Prototype_2\Prottype\WindowsStore\Debug\Prottype\AppxManifest.xml
C:\Users\s132080\Desktop\Prototype_2\Prottype\WindowsStore\Debug\Prottype\Prottype.exe
C:\Users\s132080\Desktop\Prototype_2\Prottype\WindowsStore\Debug\Prottype\Prottype.pdb
C:\Users\s132080\Desktop\Prototype_2\Prottype\WindowsStore\Players\Windows81\x86\Debug\BridgeInterface.winmd
C:\Users\s132080\Desktop\Prototype_2\Prottype\WindowsStore\Players\Windows81\x86\Debug\UnityEngineDelegates.winmd
C:\Users\s132080\Desktop\Prototype_2\Prottype\WindowsStore\Players\Windows81\x86\Debug\UnityPlayer.winmd
C:\Users\s132080\Desktop\Prototype_2\Prottype\WindowsStore\Players\Windows81\x86\Debug\WinRTBridge.winmd
C:\Users\s132080\Desktop\Prototype_2\Prottype\WindowsStore\Players\Windows81\x86\Debug\UnityPlayer.dll
C:\Users\s132080\Desktop\Prototype_2\Prottype\WindowsStore\Players\Windows81\x86\Debug\BridgeInterface.dll
C:\Users\s132080\Desktop\Prototype_2\Prottype\WindowsStore\Players\Windows81\x86\Debug\UnityEngineDelegates.dll
C:\Users\s132080\Desktop\Prototype_2\Prottype\WindowsStore\Players\Windows81\x86\Debug\UnityPlayer.pdb
C:\Users\s132080\Desktop\Prototype_2\Prottype\WindowsStore\Players\Windows81\x86\Debug\WinRTBridge.pdb
C:\Users\s132080\Desktop\Prototype_2\Prottype\WindowsStore\Players\Windows81\x86\Debug\BridgeInterface.pdb
C:\Users\s132080\Desktop\Prototype_2\Prottype\WindowsStore\Players\Windows81\x86\Debug\UnityEngineDelegates.pdb
C:\Users\s132080\Desktop\Prototype_2\Prottype\WindowsStore\Debug\Prottype\Template.winmd
C:\Users\s132080\Desktop\Prototype_2\Prottype\WindowsStore\Prottype\Assets\MediumTile.scale-100.png
C:\Users\s132080\Desktop\Prototype_2\Prottype\WindowsStore\Prottype\Assets\SmallLogo.scale-100.png
C:\Users\s132080\Desktop\Prototype_2\Prottype\WindowsStore\Prottype\Assets\SplashScreen.scale-100.png
C:\Users\s132080\Desktop\Prototype_2\Prottype\WindowsStore\Prottype\Assets\StoreLogo.scale-100.png
C:\Users\s132080\Desktop\Prototype_2\Prottype\WindowsStore\Prottype\Assets\WideTile.scale-100.png
C:\Users\s132080\Desktop\Prototype_2\Prottype\WindowsStore\Players\Windows81\x86\Debug\UnityEngineProxy.dll
C:\Users\s132080\Desktop\Prototype_2\Prottype\WindowsStore\Prottype\Assembly-CSharp.dll
C:\Users\s132080\Desktop\Prototype_2\Prottype\WindowsStore\Prottype\UnityEngine.dll
C:\Users\s132080\Desktop\Prototype_2\Prottype\WindowsStore\Prottype\UnityEngine.UI.dll
C:\Users\s132080\Desktop\Prototype_2\Prottype\WindowsStore\Prottype\WinRTLegacy.dll
C:\Users\s132080\Desktop\Prototype_2\Prottype\WindowsStore\Prottype\Assembly-CSharp.pdb
C:\Users\s132080\Desktop\Prototype_2\Prottype\WindowsStore\Prottype\UnityEngine.pdb
C:\Users\s132080\Desktop\Prototype_2\Prottype\WindowsStore\Prottype\UnityEngine.UI.pdb
C:\Users\s132080\Desktop\Prototype_2\Prottype\WindowsStore\Prottype\Data\mainData
C:\Users\s132080\Desktop\Prototype_2\Prottype\WindowsStore\Prottype\Data\PlayerConnectionConfigFile
C:\Users\s132080\Desktop\Prototype_2\Prottype\WindowsStore\Prottype\Data\Resources\unity default resources
C:\Users\s132080\Desktop\Prototype_2\Prottype\WindowsStore\Prottype\Data\Resources\unity_builtin_extra
C:\Users\s132080\Desktop\Prototype_2\Prottype\WindowsStore\Prottype\Data\managedAssemblies.txt
C:\Users\s132080\Desktop\Prototype_2\Prottype\WindowsStore\Prottype\Data\resources.assets
C:\Users\s132080\Desktop\Prototype_2\Prottype\WindowsStore\Prottype\Data\sharedassets0.assets
C:\Users\s132080\Desktop\Prototype_2\Prottype\WindowsStore\Debug\Prottype\App.xbf
C:\Users\s132080\Desktop\Prototype_2\Prottype\WindowsStore\Debug\Prottype\MainPage.xbf
C:\Users\s132080\Desktop\Prototype_2\Prottype\WindowsStore\Debug\Prottype\resources.pri
C:\Users\s132080\Desktop\Prototype_2\Prottype\WindowsStore\Prottype\Debug\ProjectArchitectures.txt
